Analysis – Maternal Vaccination in the United States
…
CDC Pregnancy Risk Assessment Monitoring System (PRAMS) Internet Panel Survey Participation is voluntary so the panel does not include all 50 states. Some states are added or removed year to year

Code

year_vax_summary <- vacc_clean %>%
  filter(!is.na(year), !is.na(vaccine)) %>%
  group_by(year, vaccine) %>%
  summarise(
    coverage = weighted.mean(estimate, sample_size, na.rm = TRUE),
    .groups = "drop"
  )

print(year_vax_summary)

# A tibble: 22 × 3
    year vaccine   coverage
   <int> <fct>        <dbl>
 1  2012 Influenza     47.9
 2  2012 Tdap          15.6
 3  2013 Influenza     56.0
 4  2013 Tdap          33.5
 5  2014 Influenza     57.4
 6  2014 Tdap          48.2
 7  2015 Influenza     57.9
 8  2015 Tdap          55.1
 9  2016 Influenza     60.6
10  2016 Tdap          72.6
# ℹ 12 more rows
…
